<?xml version="1.0" encoding="UTF-8"?>
<svg width="900px" height="900px" viewBox="0 0 900 900" version="1.1" xmlns="http://www.w3.org/2000/svg" xmlns:xlink="http://www.w3.org/1999/xlink">
    <!-- Generator: Sketch 46 (44423) - http://www.bohemiancoding.com/sketch -->
    <title>Ekletik Copy 2</title>
    <desc>Created with Sketch.</desc>
    <defs></defs>
    <g id="Page-1" stroke="none" stroke-width="1" fill="none" fill-rule="evenodd">
        <g id="Ekletik-Copy-2" fill="#0069FF">
            <path d="M244.400734,677.990117 C182.135291,621.804041 143,540.472289 143,450 C143,280.448582 280.448582,143 450,143 C619.551418,143 757,280.448582 757,450 C757,556.415097 702.856802,650.184373 620.615292,705.262942 C604.293409,701.247314 555.088312,702.493 473,709 C352.097749,718.583715 356.556525,709.186518 339.979291,703.490656 C321.163737,692.630985 310.093896,678.413832 307.733815,661.64813 C306.138459,633.202976 333.365195,587.050578 389.414024,523.190936 C299.435956,495.332084 251.854167,461.977494 247.632703,423.936094 C245.305975,397.341472 258.049533,369.428371 285.863376,340.196791 C283.857729,337.692444 276.378042,333.880468 264.310802,328.683305 C253.130051,323.408584 244.032504,321.524698 237.827092,322.067601 C198.799143,355.85338 180.548192,392.28777 183.229354,433.143748 C188.381509,481.822997 228.372699,520.308043 303.125367,547.712398 C260.285441,588.977864 240.494188,628.226831 243.020235,667.309834 C243.338642,670.949245 243.798809,674.50934 244.400734,677.990117 Z" id="Combined-Shape"></path>
        </g>
    </g>
</svg>